"pelvis"
3
18.999990 17.000000 18.999990
-0.000000 -0.000000 -0.000000
0.000000 0.000000 0.000000
"body"
3
17.000000 14.000000 17.000000
-0.000000 -0.000000 -0.000000
0.000000 0.000000 0.000000
"left_shoulder"
3
11.587570 18.924419 11.587570
-48.631279 -35.568649 -48.631271
-58.834976 -59.187126 -58.834991
"left_elbow"
3
3.081953 3.081955 3.081954
-15.476609 -15.476620 -15.476609
-22.402611 -22.402620 -22.402611
"left_wrist"
3
0.000000 0.000000 0.000000
-0.000000 -0.000000 -0.000000
0.000000 0.000000 0.000000
"right_shoulder"
3
45.598370 50.253010 45.598370
32.312519 18.747881 32.312519
64.576149 61.074028 64.576149
"right_elbow"
3
-28.845409 -28.845409 -28.845409
36.206360 36.206360 36.206360
-10.325580 -10.325580 -10.325580
"right_wrist"
3
0.000000 0.000000 0.000000
-0.000000 -0.000000 -0.000000
0.000000 0.000000 0.000000
"neck"
3
26.000090 26.000090 26.000090
-0.000000 -0.000000 -0.000000
0.000000 0.000000 0.000000
"left_hip"
3
0.000000 0.000000 0.000000
-0.000000 -0.000000 -0.000000
0.000000 0.000000 0.000000
"left_knee"
3
0.000000 0.000000 0.000000
-0.000000 -0.000000 -0.000000
0.000000 0.000000 0.000000
"left_ankle"
3
0.000000 0.000000 0.000000
-0.000000 -0.000000 -0.000000
0.000000 0.000000 0.000000
"right_hip"
3
0.000000 0.000000 0.000000
-0.000000 -0.000000 -0.000000
0.000000 0.000000 0.000000
"right_knee"
3
0.000000 0.000000 0.000000
-0.000000 -0.000000 -0.000000
0.000000 0.000000 0.000000
"right_ankle"
3
0.000000 0.000000 0.000000
-0.000000 -0.000000 -0.000000
0.000000 0.000000 0.000000