"pelvis"
10
0.000000 0.000000 0.000000 0.000000 0.000000 -8.806443 20.107201 20.107201 20.107201 0.000000
-0.000000 -0.000000 -0.000000 -0.000000 -0.000000 1.863848 66.795807 66.795807 66.795807 -0.000000
12.000000 18.000000 18.000010 18.000010 18.000010 11.856470 31.411833 31.411833 31.411833 12.000000
"body"
10
0.000000 0.000000 71.508987 94.648903 71.508987 -5.847298 -21.101931 -22.581160 -21.101931 0.000000
-0.000000 -0.000000 -50.676071 -48.835140 -50.676071 1.347365 8.526566 6.808883 8.526566 -0.000000
0.000000 8.000010 -20.042450 -37.807701 -20.042450 0.931185 -43.519230 -49.275822 -43.519230 0.000000
"left_shoulder"
10
0.000000 0.000000 -46.037621 -67.806587 -46.037621 0.000000 1.357168 1.598260 1.357168 0.000000
-0.000000 -0.000000 -62.352531 -75.681091 -62.352531 0.000000 0.579679 -11.413050 0.579679 -0.000000
36.000000 36.000011 52.109798 81.597183 52.109798 -54.999981 -49.172199 -48.847950 -49.172199 36.000011
"left_elbow"
10
-41.069771 -41.069752 -41.069752 -41.069752 -41.069752 -41.069752 -41.069752 -41.069752 -41.069752 -41.069752
-42.121540 -42.121540 -42.121540 -42.121540 -42.121540 -42.121540 -42.121540 -42.121540 -42.121540 -42.121540
16.415850 16.415840 16.415840 16.415840 16.415840 16.415840 16.415840 16.415840 16.415840 16.415840
"left_wrist"
10
0.000000 0.000000 0.000000 0.000000 0.000000 0.000000 0.000000 0.000000 0.000000 0.000000
-0.000000 -0.000000 -0.000000 -0.000000 -0.000000 -0.000000 -0.000000 -0.000000 -0.000000 -0.000000
0.000000 0.000000 0.000000 0.000000 0.000000 0.000000 0.000000 0.000000 0.000000 0.000000
"right_shoulder"
10
0.000000 0.000000 0.000000 11.175150 47.995800 -19.267000 -129.990799 -130.650406 -129.990799 0.000000
-0.000000 -0.000000 -0.000000 -28.318150 -57.848751 40.243179 33.922840 34.146351 33.922840 -0.000000
24.000000 24.000000 24.000000 14.417391 -20.903419 24.758289 -12.305960 -16.631210 -12.305960 24.000000
"right_elbow"
10
19.471920 19.471930 19.471930 19.471930 19.471930 19.471930 19.471930 19.471930 19.471930 19.471920
36.822552 36.822559 36.822559 36.822559 36.822559 36.822559 36.822559 36.822559 36.822559 36.822552
45.538151 45.538170 45.538170 45.538170 45.538170 45.538170 45.538170 45.538170 45.538170 45.538158
"right_wrist"
10
0.000000 0.000000 0.000000 0.000000 0.000000 -72.240517 -72.240540 -72.240540 -72.240540 0.000000
-0.000000 -0.000000 -0.000000 -0.000000 -0.000000 22.560980 22.560980 22.560980 22.560980 -0.000000
0.000000 0.000000 0.000000 0.000000 0.000000 -8.661786 -8.661794 -8.661794 -8.661794 0.000000
"neck"
10
0.000000 0.000000 0.000000 0.000000 0.000000 0.000000 10.070180 10.070180 10.070180 0.000000
0.000000 0.000000 0.000000 0.000000 0.000000 0.000000 -24.503920 -24.503920 -24.503920 0.000000
-10.000020 -10.000020 -10.000020 -10.000020 -10.000020 -10.000020 2.886197 2.886197 2.886197 -10.000020
"left_hip"
10
0.000000 0.000000 50.481880 57.707584 50.481892 0.000000 0.000000 0.000000 0.000000 0.000000
-0.000000 -0.000000 -18.955561 -20.624680 -18.955561 -0.000000 -0.000000 -0.000000 -0.000000 -0.000000
0.000000 8.999999 10.999820 8.550249 10.999820 0.000000 55.001591 55.001591 55.001591 0.000000
"left_knee"
10
0.000000 15.852150 15.852150 15.852150 15.852150 0.000000 0.000000 0.000000 0.000000 0.000000
-0.000000 -2.198481 -2.198480 -2.198480 -2.198480 -0.000000 0.000000 0.000000 0.000000 -0.000000
0.000000 -5.306127 -5.306126 -5.306126 -5.306126 0.000000 -59.160946 -59.160946 -59.160946 0.000000
"left_ankle"
10
0.000000 -9.870184 -9.870184 -9.870184 -9.870184 0.000000 0.000000 0.000000 0.000000 0.000000
-0.000000 1.997817 1.997817 1.997816 1.997816 -0.000000 -0.000000 -0.000000 -0.000000 -0.000000
0.000000 -0.249066 -0.249066 -0.249066 -0.249065 0.000000 15.664561 15.664561 15.664561 0.000000
"right_hip"
10
0.000000 0.000000 0.000000 0.000000 0.000000 0.000000 34.192520 34.192520 34.192520 0.000000
-0.000000 0.000000 0.000000 0.000000 0.000000 -0.000000 7.976139 7.976139 7.976139 -0.000000
0.000000 -19.000019 -19.000019 -19.000031 -19.000031 0.000000 2.456801 2.456801 2.456801 0.000000
"right_knee"
10
0.000000 0.000000 0.000000 0.000000 0.000000 0.000000 43.137760 43.137760 43.137760 0.000000
-0.000000 -0.000000 -0.000000 -0.000000 -0.000000 -0.000000 9.674682 9.674682 9.674682 -0.000000
0.000000 24.000650 24.000650 24.000650 24.000650 0.000000 3.832065 3.832065 3.832065 0.000000
"right_ankle"
10
0.000000 0.000000 0.000000 0.000000 0.000000 0.000000 0.000000 0.000000 0.000000 0.000000
-0.000000 0.000000 0.000000 0.000000 0.000000 -0.000000 -0.000000 -0.000000 -0.000000 -0.000000
0.000000 -9.003719 -9.003721 -9.003723 -9.003724 0.000000 0.000000 0.000000 0.000000 0.000000