xof 0303txt 0032

// DirectX - from MilkShape3D

Frame bulletFrame
{
    FrameTransformMatrix
    {
        1.000000,0.000000,0.000000,0.000000,
        0.000000,1.000000,0.000000,0.000000,
        0.000000,0.000000,1.000000,0.000000,
        0.000000,0.000000,0.000000,1.000000;;
    }

    Mesh bulletMesh
    {
        113;
        -0.000125;-0.104932;-0.001320;,
        -0.052433;-0.090947;-0.001320;,
        -0.045425;-0.090947;0.041478;,
        -0.000125;0.103831;-0.001320;,
        -0.045425;0.089847;0.041478;,
        -0.052433;0.089847;-0.001320;,
        -0.000125;-0.104932;-0.001320;,
        -0.026279;-0.090947;0.072809;,
        -0.000125;0.103831;-0.001320;,
        -0.026279;0.089847;0.072809;,
        -0.000125;-0.104932;-0.001320;,
        -0.000125;-0.090947;0.084277;,
        -0.000125;0.103831;-0.001320;,
        -0.000125;0.089847;0.084277;,
        -0.000125;-0.104932;-0.001320;,
        0.026028;-0.090947;0.072809;,
        -0.000125;0.103831;-0.001320;,
        0.026028;0.089847;0.072809;,
        -0.000125;-0.104932;-0.001320;,
        0.045174;-0.090947;0.041478;,
        -0.000125;0.103831;-0.001320;,
        0.045174;0.089847;0.041478;,
        -0.000125;-0.104932;-0.001320;,
        0.052182;-0.090947;-0.001320;,
        -0.000125;0.103831;-0.001320;,
        0.052182;0.089847;-0.001320;,
        -0.000125;-0.104932;-0.001320;,
        0.045174;-0.090947;-0.044119;,
        -0.000125;0.103831;-0.001320;,
        0.045174;0.089847;-0.044119;,
        -0.000125;-0.104932;-0.001320;,
        0.026028;-0.090947;-0.075450;,
        -0.000125;0.103831;-0.001320;,
        0.026028;0.089847;-0.075450;,
        -0.000125;-0.104932;-0.001320;,
        -0.000125;-0.090947;-0.086918;,
        -0.000125;0.103831;-0.001320;,
        -0.000125;0.089847;-0.086918;,
        -0.000125;-0.104932;-0.001320;,
        -0.026279;-0.090947;-0.075450;,
        -0.000125;0.103831;-0.001320;,
        -0.026279;0.089847;-0.075450;,
        -0.000125;-0.104932;-0.001320;,
        -0.045425;-0.090947;-0.044119;,
        -0.000125;0.103831;-0.001320;,
        -0.045425;0.089847;-0.044119;,
        -0.000125;-0.104932;-0.001320;,
        -0.052433;-0.090947;-0.001320;,
        -0.000125;0.103831;-0.001320;,
        -0.052433;0.089847;-0.001320;,
        -0.090725;-0.052741;-0.001320;,
        -0.078587;-0.052741;0.072809;,
        -0.045425;-0.052741;0.127075;,
        -0.000126;-0.052741;0.146938;,
        0.045174;-0.052741;0.127075;,
        0.078336;-0.052741;0.072809;,
        0.090474;-0.052741;-0.001320;,
        0.078336;-0.052741;-0.075450;,
        0.045174;-0.052741;-0.129716;,
        -0.000125;-0.052741;-0.149579;,
        -0.045425;-0.052741;-0.129716;,
        -0.078587;-0.052741;-0.075450;,
        -0.090725;-0.052741;-0.001320;,
        -0.104741;-0.000550;-0.001320;,
        -0.090725;-0.000550;0.084277;,
        -0.045423;-0.063990;0.200672;,
        -0.090724;0.000562;0.155893;,
        -0.052436;0.000562;0.221459;,
        -0.052433;-0.000550;0.146938;,
        -0.000126;-0.000550;0.169874;,
        0.052182;-0.000550;0.146938;,
        0.045171;-0.063990;0.200672;,
        0.052184;0.000562;0.221459;,
        0.090472;0.000562;0.155893;,
        0.090474;-0.000550;0.084277;,
        0.104490;-0.000550;-0.001320;,
        0.090474;-0.000550;-0.086918;,
        0.052182;-0.000550;-0.149579;,
        -0.000125;-0.000550;-0.172515;,
        -0.052433;-0.000550;-0.149579;,
        -0.090725;-0.000550;-0.086918;,
        -0.104741;-0.000550;-0.001320;,
        -0.090725;0.051641;-0.001320;,
        -0.078587;0.051641;0.072809;,
        -0.045425;0.051641;0.127075;,
        -0.045423;0.065115;0.200672;,
        -0.000126;0.051641;0.146938;,
        0.045174;0.051641;0.127075;,
        0.078336;0.051641;0.072809;,
        0.045171;0.065115;0.200672;,
        0.090474;0.051641;-0.001320;,
        0.078336;0.051641;-0.075450;,
        0.045174;0.051641;-0.129716;,
        -0.000125;0.051641;-0.149579;,
        -0.045425;0.051641;-0.129716;,
        -0.078587;0.051641;-0.075450;,
        -0.090725;0.051641;-0.001320;,
        -0.045423;-0.063990;0.200672;,
        -0.045425;-0.052741;0.127075;,
        -0.090725;-0.000550;0.084277;,
        -0.090724;0.000562;0.155893;,
        -0.052436;0.000562;0.221459;,
        -0.052433;-0.000550;0.146938;,
        0.045171;-0.063990;0.200672;,
        0.045174;-0.052741;0.127075;,
        0.052182;-0.000550;0.146938;,
        0.052184;0.000562;0.221459;,
        0.090472;0.000562;0.155893;,
        0.090474;-0.000550;0.084277;,
        -0.045425;0.051641;0.127075;,
        -0.045423;0.065115;0.200672;,
        0.045174;0.051641;0.127075;,
        0.045171;0.065115;0.200672;;
        136;
        3;0,2,1;,
        3;3,5,4;,
        3;6,7,2;,
        3;8,4,9;,
        3;10,11,7;,
        3;12,9,13;,
        3;14,15,11;,
        3;16,13,17;,
        3;18,19,15;,
        3;20,17,21;,
        3;22,23,19;,
        3;24,21,25;,
        3;26,27,23;,
        3;28,25,29;,
        3;30,31,27;,
        3;32,29,33;,
        3;34,35,31;,
        3;36,33,37;,
        3;38,39,35;,
        3;40,37,41;,
        3;42,43,39;,
        3;44,41,45;,
        3;46,47,43;,
        3;48,45,49;,
        3;1,51,50;,
        3;1,2,51;,
        3;2,7,51;,
        3;51,7,52;,
        3;7,53,52;,
        3;7,11,53;,
        3;11,15,53;,
        3;53,15,54;,
        3;15,55,54;,
        3;15,19,55;,
        3;19,23,55;,
        3;55,23,56;,
        3;23,57,56;,
        3;23,27,57;,
        3;27,31,57;,
        3;57,31,58;,
        3;31,59,58;,
        3;31,35,59;,
        3;35,39,59;,
        3;59,39,60;,
        3;39,61,60;,
        3;39,43,61;,
        3;43,47,61;,
        3;61,47,62;,
        3;50,51,63;,
        3;63,51,64;,
        3;65,67,66;,
        3;51,52,64;,
        3;52,53,68;,
        3;68,53,69;,
        3;53,70,69;,
        3;53,54,70;,
        3;71,73,72;,
        3;54,55,74;,
        3;55,75,74;,
        3;55,56,75;,
        3;56,57,75;,
        3;75,57,76;,
        3;57,77,76;,
        3;57,58,77;,
        3;58,59,77;,
        3;77,59,78;,
        3;59,79,78;,
        3;59,60,79;,
        3;60,61,79;,
        3;79,61,80;,
        3;61,81,80;,
        3;61,62,81;,
        3;63,83,82;,
        3;63,64,83;,
        3;64,84,83;,
        3;66,67,85;,
        3;68,86,84;,
        3;68,69,86;,
        3;69,70,86;,
        3;86,70,87;,
        3;74,88,87;,
        3;72,73,89;,
        3;74,75,88;,
        3;88,75,90;,
        3;75,91,90;,
        3;75,76,91;,
        3;76,77,91;,
        3;91,77,92;,
        3;77,93,92;,
        3;77,78,93;,
        3;78,79,93;,
        3;93,79,94;,
        3;79,95,94;,
        3;79,80,95;,
        3;80,81,95;,
        3;95,81,96;,
        3;82,83,5;,
        3;5,83,4;,
        3;83,9,4;,
        3;83,84,9;,
        3;84,86,9;,
        3;9,86,13;,
        3;86,17,13;,
        3;86,87,17;,
        3;87,88,17;,
        3;17,88,21;,
        3;88,25,21;,
        3;88,90,25;,
        3;90,91,25;,
        3;25,91,29;,
        3;91,33,29;,
        3;91,92,33;,
        3;92,93,33;,
        3;33,93,37;,
        3;93,41,37;,
        3;93,94,41;,
        3;94,95,41;,
        3;41,95,45;,
        3;95,49,45;,
        3;95,96,49;,
        3;97,99,98;,
        3;97,100,99;,
        3;101,98,102;,
        3;101,97,98;,
        3;103,105,104;,
        3;103,106,105;,
        3;107,104,108;,
        3;107,103,104;,
        3;100,109,99;,
        3;100,110,109;,
        3;110,102,109;,
        3;110,101,102;,
        3;106,111,105;,
        3;106,112,111;,
        3;112,108,111;,
        3;112,107,108;;

        MeshNormals
        {
            111;
            -0.258049;-0.965207;0.042253;,
            -0.571222;-0.815449;0.093533;,
            -0.442345;-0.882647;0.158953;,
            -0.258049;0.965207;0.042253;,
            -0.442345;0.882647;0.158953;,
            -0.571222;0.815449;0.093533;,
            -0.190761;-0.974690;0.116572;,
            -0.313148;-0.886837;0.339790;,
            -0.190761;0.974690;0.116572;,
            -0.313148;0.886838;0.339790;,
            -0.070523;-0.984458;0.160837;,
            0.000000;-0.938510;0.345252;,
            -0.070523;0.984458;0.160837;,
            0.000000;0.938510;0.345252;,
            0.070523;-0.984458;0.160837;,
            0.313148;-0.886837;0.339790;,
            0.070523;0.984458;0.160837;,
            0.313148;0.886838;0.339790;,
            0.190761;-0.974690;0.116572;,
            0.442345;-0.882647;0.158953;,
            0.190761;0.974690;0.116572;,
            0.442345;0.882647;0.158953;,
            0.258049;-0.965207;0.042253;,
            0.573737;-0.819039;0.000000;,
            0.258049;0.965207;0.042253;,
            0.573738;0.819039;0.000000;,
            0.258049;-0.965207;-0.042253;,
            0.442345;-0.882647;-0.158953;,
            0.258049;0.965207;-0.042253;,
            0.442345;0.882647;-0.158953;,
            0.190761;-0.974690;-0.116572;,
            0.313148;-0.886838;-0.339790;,
            0.190761;0.974690;-0.116572;,
            0.313148;0.886838;-0.339790;,
            0.070523;-0.984458;-0.160837;,
            0.000000;-0.938510;-0.345252;,
            0.070523;0.984458;-0.160837;,
            0.000000;0.938510;-0.345252;,
            -0.070523;-0.984458;-0.160837;,
            -0.313148;-0.886837;-0.339790;,
            -0.070523;0.984458;-0.160837;,
            -0.313148;0.886838;-0.339790;,
            -0.190761;-0.974690;-0.116572;,
            -0.442345;-0.882647;-0.158953;,
            -0.190761;0.974690;-0.116572;,
            -0.442345;0.882647;-0.158953;,
            -0.258049;-0.965207;-0.042253;,
            -0.571222;-0.815449;-0.093533;,
            -0.258049;0.965207;-0.042253;,
            -0.571222;0.815449;-0.093533;,
            -0.856668;-0.496431;0.140272;,
            -0.786357;-0.561297;0.258047;,
            -0.528808;-0.609543;0.590610;,
            -0.000000;-0.664185;0.747568;,
            0.528808;-0.609543;0.590610;,
            0.786357;-0.561297;0.258048;,
            0.865222;-0.501389;0.000000;,
            0.795773;-0.530853;-0.291445;,
            0.528808;-0.609543;-0.590610;,
            -0.000000;-0.664185;-0.747568;,
            -0.528808;-0.609543;-0.590610;,
            -0.795773;-0.530853;-0.291445;,
            -0.856668;-0.496431;-0.140272;,
            -0.986858;0.000000;0.161590;,
            -0.937936;0.000000;0.346809;,
            -0.836529;-0.248179;0.488494;,
            -0.863546;0.000000;0.504270;,
            -0.401569;0.000000;0.915829;,
            -0.000000;0.000000;1.000000;,
            0.401569;0.000000;0.915829;,
            0.836529;-0.248179;0.488494;,
            0.863546;0.000000;0.504270;,
            0.937936;0.000000;0.346809;,
            1.000000;0.000000;0.000000;,
            0.937936;0.000000;-0.346809;,
            0.661034;0.000000;-0.750356;,
            -0.000000;0.000000;-1.000000;,
            -0.661034;0.000000;-0.750356;,
            -0.937936;0.000000;-0.346809;,
            -0.986858;0.000000;-0.161590;,
            -0.856668;0.496431;0.140272;,
            -0.786357;0.561297;0.258047;,
            -0.528808;0.609543;0.590610;,
            -0.836529;0.248179;0.488494;,
            -0.000000;0.664185;0.747568;,
            0.528808;0.609543;0.590610;,
            0.786357;0.561297;0.258048;,
            0.836529;0.248179;0.488494;,
            0.865222;0.501389;0.000000;,
            0.795773;0.530853;-0.291445;,
            0.528808;0.609543;-0.590610;,
            -0.000000;0.664185;-0.747568;,
            -0.528808;0.609543;-0.590610;,
            -0.795773;0.530853;-0.291445;,
            -0.856668;0.496432;-0.140272;,
            -0.414154;-0.907947;-0.064103;,
            0.938031;-0.339742;-0.068362;,
            -0.964913;-0.258524;-0.045908;,
            -0.955826;0.290157;-0.046960;,
            0.999046;0.043358;0.005163;,
            0.999428;-0.032964;0.007539;,
            -0.951729;-0.300941;-0.060390;,
            0.434442;-0.899256;-0.050974;,
            -0.999391;0.034258;0.006582;,
            -0.999089;-0.042201;0.006387;,
            0.959412;-0.279471;-0.037739;,
            0.961411;0.269672;-0.054459;,
            -0.416999;0.905443;-0.079278;,
            0.949476;0.305901;-0.070139;,
            -0.935868;0.343387;-0.078975;,
            0.396693;0.913281;-0.092482;;
            136;
            3;0,2,1;,
            3;3,5,4;,
            3;6,7,2;,
            3;8,4,9;,
            3;10,11,7;,
            3;12,9,13;,
            3;14,15,11;,
            3;16,13,17;,
            3;18,19,15;,
            3;20,17,21;,
            3;22,23,19;,
            3;24,21,25;,
            3;26,27,23;,
            3;28,25,29;,
            3;30,31,27;,
            3;32,29,33;,
            3;34,35,31;,
            3;36,33,37;,
            3;38,39,35;,
            3;40,37,41;,
            3;42,43,39;,
            3;44,41,45;,
            3;46,47,43;,
            3;48,45,49;,
            3;1,51,50;,
            3;1,2,51;,
            3;2,7,51;,
            3;51,7,52;,
            3;7,53,52;,
            3;7,11,53;,
            3;11,15,53;,
            3;53,15,54;,
            3;15,55,54;,
            3;15,19,55;,
            3;19,23,55;,
            3;55,23,56;,
            3;23,57,56;,
            3;23,27,57;,
            3;27,31,57;,
            3;57,31,58;,
            3;31,59,58;,
            3;31,35,59;,
            3;35,39,59;,
            3;59,39,60;,
            3;39,61,60;,
            3;39,43,61;,
            3;43,47,61;,
            3;61,47,62;,
            3;50,51,63;,
            3;63,51,64;,
            3;65,66,66;,
            3;51,52,64;,
            3;52,53,67;,
            3;67,53,68;,
            3;53,69,68;,
            3;53,54,69;,
            3;70,71,71;,
            3;54,55,72;,
            3;55,73,72;,
            3;55,56,73;,
            3;56,57,73;,
            3;73,57,74;,
            3;57,75,74;,
            3;57,58,75;,
            3;58,59,75;,
            3;75,59,76;,
            3;59,77,76;,
            3;59,60,77;,
            3;60,61,77;,
            3;77,61,78;,
            3;61,79,78;,
            3;61,62,79;,
            3;63,81,80;,
            3;63,64,81;,
            3;64,82,81;,
            3;66,66,83;,
            3;67,84,82;,
            3;67,68,84;,
            3;68,69,84;,
            3;84,69,85;,
            3;72,86,85;,
            3;71,71,87;,
            3;72,73,86;,
            3;86,73,88;,
            3;73,89,88;,
            3;73,74,89;,
            3;74,75,89;,
            3;89,75,90;,
            3;75,91,90;,
            3;75,76,91;,
            3;76,77,91;,
            3;91,77,92;,
            3;77,93,92;,
            3;77,78,93;,
            3;78,79,93;,
            3;93,79,94;,
            3;80,81,5;,
            3;5,81,4;,
            3;81,9,4;,
            3;81,82,9;,
            3;82,84,9;,
            3;9,84,13;,
            3;84,17,13;,
            3;84,85,17;,
            3;85,86,17;,
            3;17,86,21;,
            3;86,25,21;,
            3;86,88,25;,
            3;88,89,25;,
            3;25,89,29;,
            3;89,33,29;,
            3;89,90,33;,
            3;90,91,33;,
            3;33,91,37;,
            3;91,41,37;,
            3;91,92,41;,
            3;92,93,41;,
            3;41,93,45;,
            3;93,49,45;,
            3;93,94,49;,
            3;95,97,96;,
            3;95,98,97;,
            3;99,96,100;,
            3;99,95,96;,
            3;101,103,102;,
            3;101,104,103;,
            3;105,102,106;,
            3;105,101,102;,
            3;98,107,97;,
            3;98,108,107;,
            3;108,100,107;,
            3;108,99,100;,
            3;104,109,103;,
            3;104,110,109;,
            3;110,106,109;,
            3;110,105,106;;
        }

        MeshTextureCoords
        {
            113;
            0.000000;1.000000;,
            0.000000;0.833333;,
            0.083333;0.833333;,
            0.000000;0.000000;,
            0.083333;0.166667;,
            0.000000;0.166667;,
            0.083333;1.000000;,
            0.166667;0.833333;,
            0.083333;0.000000;,
            0.166667;0.166667;,
            0.166667;1.000000;,
            0.250000;0.833333;,
            0.166667;0.000000;,
            0.250000;0.166667;,
            0.250000;1.000000;,
            0.333333;0.833333;,
            0.250000;0.000000;,
            0.333333;0.166667;,
            0.333333;1.000000;,
            0.416667;0.833333;,
            0.333333;0.000000;,
            0.416667;0.166667;,
            0.416667;1.000000;,
            0.500000;0.833333;,
            0.416667;0.000000;,
            0.500000;0.166667;,
            0.500000;1.000000;,
            0.583333;0.833333;,
            0.500000;0.000000;,
            0.583333;0.166667;,
            0.583333;1.000000;,
            0.666667;0.833333;,
            0.583333;0.000000;,
            0.666667;0.166667;,
            0.666667;1.000000;,
            0.750000;0.833333;,
            0.666667;0.000000;,
            0.750000;0.166667;,
            0.750000;1.000000;,
            0.833333;0.833333;,
            0.750000;0.000000;,
            0.833333;0.166667;,
            0.833333;1.000000;,
            0.916667;0.833333;,
            0.833333;0.000000;,
            0.916667;0.166667;,
            0.916667;1.000000;,
            1.000000;0.833333;,
            0.916667;0.000000;,
            1.000000;0.166667;,
            0.000000;0.666667;,
            0.083333;0.666667;,
            0.166667;0.666667;,
            0.250000;0.666667;,
            0.333333;0.666667;,
            0.416667;0.666667;,
            0.500000;0.666667;,
            0.583333;0.666667;,
            0.666667;0.666667;,
            0.750000;0.666667;,
            0.833333;0.666667;,
            0.916667;0.666667;,
            1.000000;0.666667;,
            0.000000;0.500000;,
            0.083333;0.500000;,
            0.166667;0.666667;,
            0.083333;0.500000;,
            0.166667;0.500000;,
            0.166667;0.500000;,
            0.250000;0.500000;,
            0.333333;0.500000;,
            0.333333;0.666667;,
            0.333333;0.500000;,
            0.416667;0.500000;,
            0.416667;0.500000;,
            0.500000;0.500000;,
            0.583333;0.500000;,
            0.666667;0.500000;,
            0.750000;0.500000;,
            0.833333;0.500000;,
            0.916667;0.500000;,
            1.000000;0.500000;,
            0.000000;0.333333;,
            0.083333;0.333333;,
            0.166667;0.333333;,
            0.166667;0.333333;,
            0.250000;0.333333;,
            0.333333;0.333333;,
            0.416667;0.333333;,
            0.333333;0.333333;,
            0.500000;0.333333;,
            0.583333;0.333333;,
            0.666667;0.333333;,
            0.750000;0.333333;,
            0.833333;0.333333;,
            0.916667;0.333333;,
            1.000000;0.333333;,
            0.000000;0.000000;,
            0.000000;0.000000;,
            0.000000;0.000000;,
            0.000000;0.000000;,
            0.000000;0.000000;,
            0.000000;0.000000;,
            0.000000;0.000000;,
            0.000000;0.000000;,
            0.000000;0.000000;,
            0.000000;0.000000;,
            0.000000;0.000000;,
            0.000000;0.000000;,
            0.000000;0.000000;,
            0.000000;0.000000;,
            0.000000;0.000000;,
            0.000000;0.000000;;
        }
    }
}
